thiago gouveia silva gov2
mariana santos mmms
icaro tavares fernandes da rocha da silva _icarin
richarlisson 9 R9_novo
michael jackson aul +9master_
heberton de la jamaica BB_
eduardo sexto hokage kksh@22                                                                              
